<?xml version="1.0" encoding="UTF-8"?>
<session version="1.0">
<refactoring comment="Rename resource &apos;springboot-servicio-eureka-server/src/main/resources/application.properties&apos; to &apos;application.properties_backup&apos;" description="Rename resource &apos;application.properties&apos;" flags="7" id="org.eclipse.ltk.core.refactoring.rename.resource" input="src/main/resources/application.properties" name="application.properties_backup" stamp="1595607808522" updateReferences="true"/>
</session>