<?xml version="1.0" encoding="UTF-8"?>
<session version="1.0">
<refactoring comment="Copy 2 elements to &apos;springboot-servicio-usuarios/src/main/java/com.local.springboot.app.usuarios.models.entity&apos;&#x0D;&#x0A;- Original project: &apos;springboot-servicio-usuarios-commons&apos;&#x0D;&#x0A;- Destination element: &apos;springboot-servicio-usuarios/src/main/java/com.local.springboot.app.usuarios.models.entity&apos;&#x0D;&#x0A;- Original elements:&#x0D;&#x0A;     com.local.springboot.app.usuarios.commons.models.entity.Role.java&#x0D;&#x0A;     com.local.springboot.app.usuarios.commons.models.entity.Usuario.java" description="Copy compilation units" destination="=springboot-servicio-usuarios/src\/main\/java=/optional=/true=/=/maven.pomderived=/true=/&lt;com.local.springboot.app.usuarios.models.entity" element1="/src\/main\/java=/optional=/true=/=/maven.pomderived=/true=/&lt;com.local.springboot.app.usuarios.commons.models.entity{Role.java" element2="/src\/main\/java=/optional=/true=/=/maven.pomderived=/true=/&lt;com.local.springboot.app.usuarios.commons.models.entity{Usuario.java" files="0" flags="589830" folders="0" id="org.eclipse.jdt.ui.copy" policy="org.eclipse.jdt.ui.copyResources" stamp="1594064091448" units="2" version="1.0"/>
</session>