<?xml version="1.0" encoding="UTF-8"?>
<session version="1.0">
<refactoring comment="Copy element &apos;PreTiempoTranscurridoFilter.java&apos; to &apos;springboot-servicio-zuul-server/src/main/java/com.local.springboot.app.zuul.filters&apos;&#x0D;&#x0A;- Original project: &apos;springboot-servicio-zuul-server&apos;&#x0D;&#x0A;- Destination element: &apos;springboot-servicio-zuul-server/src/main/java/com.local.springboot.app.zuul.filters&apos;&#x0D;&#x0A;- Original element: &apos;com.local.springboot.app.zuul.filters.PreTiempoTranscurridoFilter.java&apos;" description="Copy compilation unit" destination="/src\/main\/java=/optional=/true=/=/maven.pomderived=/true=/&lt;com.local.springboot.app.zuul.filters" element1="/src\/main\/java=/optional=/true=/=/maven.pomderived=/true=/&lt;com.local.springboot.app.zuul.filters{PreTiempoTranscurridoFilter.java" files="0" flags="589830" folders="0" id="org.eclipse.jdt.ui.copy" policy="org.eclipse.jdt.ui.copyResources" stamp="1593699455273" units="1" version="1.0"/>
</session>